…
   [1] FALSE  TRUE FALSE FALSE  TRUE FALSE
 
   `x[!duplicated(x)]` can remove all the duplicated elements in x
   
   The function `distinct() [dplyr package]` can be used to keep only unique/distinct rows from a data frame. If there are duplicate rows, only the first row is preserved. It’s an efficient version of the R base function `unique()`.

   ```R
   # Remove duplicate rows based on all columns:
   my_data %>% distinct()
   ```
   ```
   ## # A tibble: 149 x 5
   ##   Sepal.Length Sepal.Width Petal.Length Petal.Width Species
   ##          <dbl>       <dbl>        <dbl>       <dbl> <fct>  
   ## 1          5.1         3.5          1.4         0.2 setosa 
   ## 2          4.9         3            1.4         0.2 setosa 
   ## 3          4.7         3.2          1.3         0.2 setosa 
   ## 4          4.6         3.1          1.5         0.2 setosa 
   ## 5          5           3.6          1.4         0.2 setosa 
   ## 6          5.4         3.9          1.7         0.4 setosa 
   ## # ... with 143 more rows
   ```
   Remove duplicate rows based on certain columns (variables):
   ```R
   # Remove duplicated rows based on Sepal.Length
   my_data %>% distinct(Sepal.Length, .keep_all = TRUE)
   ```
   ```
   ## # A tibble: 35 x 5
   ##   Sepal.Length Sepal.Width Petal.Length Petal.Width Species
   ##          <dbl>       <dbl>        <dbl>       <dbl> <fct>  
   ## 1          5.1         3.5          1.4         0.2 setosa 
   ## 2          4.9         3            1.4         0.2 setosa 
   ## 3          4.7         3.2          1.3         0.2 setosa 
   ## 4          4.6         3.1          1.5         0.2 setosa 
   ## 5          5           3.6          1.4         0.2 setosa 
   ## 6          5.4         3.9          1.7         0.4 setosa 
   ## # ... with 29 more rows
   ```
   ```R
   # Remove duplicated rows based on 
   # Sepal.Length and Petal.Width
   my_data %>% distinct(Sepal.Length, Petal.Width, .keep_all = TRUE)
   ```
   ```
   ## # A tibble: 110 x 5
   ##   Sepal.Length Sepal.Width Petal.Length Petal.Width Species
   ##          <dbl>       <dbl>        <dbl>       <dbl> <fct>  
   ## 1          5.1         3.5          1.4         0.2 setosa 
   ## 2          4.9         3            1.4         0.2 setosa 
   ## 3          4.7         3.2          1.3         0.2 setosa 
   ## 4          4.6         3.1          1.5         0.2 setosa 
   ## 5          5           3.6          1.4         0.2 setosa 
   ## 6          5.4         3.9          1.7         0.4 setosa 
   ## # ... with 104 more rows
   ```  
…
## Number (Identify) variables by group
*(Reference: https://stackoverflow.com/questions/12925063/numbering-rows-within-groups-in-a-data-frame)*

  ```R
  library(dplyr)
  base_cord_test <- base_cord_test %>% group_by(DISTCD) %>% mutate(id = row_number())
  ```
  
  and we can get the result table like this:
  ```R
  # A tibble: 297,681 x 4
  # Groups:   DISTCD [542]
   DISTCD   lat  long    id
    <int> <dbl> <dbl> <int>
 1    999  2.32 -58.3     1
 2    999  6.02 -58.3     2
 3    999  5.57 -59.5     3
 4     18  5.36 -58.5     1
 5    532  5.21 -58.1     1
 6     33  3.46 -57.6     1
 7     32  4.39 -57.5     1
 8     24  4.47 -58.5     1
 9    999  4.19 -57.6     4
10    999  3.23 -57.5     5
# ... with 297,671 more rows
  ```
…
